module gitlab.com/aluma-clients/aluma-cli

go 1.12

require (
	github.com/alecthomas/template v0.0.0-20160405071501-a0175ee3bccc // indirect
	github.com/alecthomas/units v0.0.0-20190717042225-c3de453c63f4 // indirect
	github.com/cenkalti/backoff v2.1.1+incompatible
	github.com/davecgh/go-spew v1.1.1 // indirect
	github.com/fatih/color v1.7.0 // indirect
	github.com/golang/protobuf v1.3.1 // indirect
	github.com/gosuri/uilive v0.0.3 // indirect
	github.com/gosuri/uiprogress v0.0.1
	github.com/gosuri/uitable v0.0.3
	github.com/mattn/go-colorable v0.1.2 // indirect
	github.com/mattn/go-isatty v0.0.8
	github.com/mattn/go-runewidth v0.0.4 // indirect
	github.com/mattn/go-zglob v0.0.1
	github.com/mitchellh/go-homedir v1.1.0
	github.com/mitchellh/mapstructure v1.1.2
	github.com/olekukonko/tablewriter v0.0.1
	github.com/onsi/gomega v1.7.0 // indirect
	github.com/petergtz/pegomock v2.7.0+incompatible
	github.com/pkg/errors v0.8.1
	github.com/spf13/afero v1.2.2
	github.com/stretchr/objx v0.1.1 // indirect
	github.com/stretchr/testify v1.3.0
	golang.org/x/crypto v0.0.0-20190611184440-5c40567a22f8
	golang.org/x/net v0.0.0-20190620200207-3b0461eec859 // indirect
	golang.org/x/sys v0.0.0-20190610200419-93c9922d18ae // indirect
	golang.org/x/text v0.3.2 // indirect
	gopkg.in/alecthomas/kingpin.v2 v2.2.6
	gopkg.in/yaml.v2 v2.2.2
)
